<server>
	<url>localhost</url>
	<database>dbname</database>
	<port>3306</port>
	<user>username</user>
	<password>pw</password>
		
	<table>
		<select>*</select>
		<name>tablename</name>
		<append></append>
		<delimiter></delimiter>
		<id>ID</id>
		<trim>TRUE</trim>
		<row>
			<bundle id="bundle_id_where_you_want_to_import">
				<field id="name_of_the_field_typically_something_like_fe5ce47634bdffa8de785f779062bf57"><fieldname>row_name_in_the_sql_table_referenced_above_with_tablename_like_Personenname</fieldname></field>
				<field id="fe5ce47634bdffa8de785f779062bf57"><fieldname>alternative_Personennamen</fieldname></field>
				<field id="f343137acb4499019a49db23f0a41f28"><fieldname>Adresse</fieldname></field>
				<bundle id="b830ec66747bd8ec01283a3d1dcfb960">
					<field id="f9ff67ab28c8860cc112b0f090a0954a"><fieldname>Geburtsdatum</fieldname></field>
				</bundle>
				<bundle id="bfca5d3964f58252057df958795e7987">
					<field id="f3b478a56ae59938de04415ca94a1cf5"><fieldname>Todesdatum</fieldname></field>
				</bundle>
				<field id="f75b760e51080f6b4e521ebae8b83f5f"><fieldname>Beruf</fieldname></field>
				<field id="fa461d9f220d6c5815ceca116f8cf615"><fieldname>Biografische_Anmerkungen</fieldname></field>
			</bundle>
		</row>
	</table>
</server>
